[
 {
  "ITA": "saldare la fattura",
  "ENG": "to settle invoice"
 },
 {
  "ITA": "casa madre",
  "ENG": "parent company"
 },
 {
  "ITA": "punto vendita",
  "ENG": "outlet"
 },
 {
  "ITA": "esito",
  "ENG": "outcome"
 },
 {
  "ITA": "sfruttare",
  "ENG": "to exploit"
 },
 {
  "ITA": "considerare",
  "ENG": "to factor"
 },
 {
  "ITA": "raccogliere fondi",
  "ENG": "raise finance"
 },
 {
  "ITA": "ditta",
  "ENG": "firm"
 },
 {
  "ITA": "gestire i rapporti con la stampa",
  "ENG": "liaising with the press"
 },
 {
  "ITA": "stabilimento",
  "ENG": "factory"
 },
 {
  "ITA": "industria",
  "ENG": "industry"
 },
 {
  "ITA": "operai",
  "ENG": "blue collars"
 },
 {
  "ITA": "attività impiegatizie",
  "ENG": "white collar work"
 },
 {
  "ITA": "settore vendite",
  "ENG": "purchasing  department"
 },
 {
  "ITA": "partecipare",
  "ENG": "to plummet"
 },
 {
  "ITA": "appaltare\\terzializzare",
  "ENG": "outsource"
 },
 {
  "ITA": "delocalizzare",
  "ENG": "to offshore"
 },
 {
  "ITA": "gestire un'attività",
  "ENG": "to (run) manage a business"
 },
 {
  "ITA": "avere un'attività",
  "ENG": "to own a business"
 },
 {
  "ITA": "avviare un'attività",
  "ENG": "to set up a business"
 },
 {
  "ITA": "portare avanti un'attività",
  "ENG": "to carry on a business"
 },
 {
  "ITA": "padrone di casa",
  "ENG": "landlord"
 },
 {
  "ITA": "negoziante\/venditore al dettaglio",
  "ENG": "retailer"
 },
 {
  "ITA": "grossista",
  "ENG": "wholesaler"
 },
 {
  "ITA": "forza lavoro",
  "ENG": "work force"
 },
 {
  "ITA": "comprare un'attività",
  "ENG": "acquisition"
 },
 {
  "ITA": "fusione di due compagnie",
  "ENG": "merger"
 },
 {
  "ITA": "mettersi in proprio",
  "ENG": "to go it alone"
 },
 {
  "ITA": "sfondare\/irromper ein un nuovo mercato",
  "ENG": "to break into a new market"
 },
 {
  "ITA": "colloquio",
  "ENG": "interview"
 },
 {
  "ITA": "dipendente",
  "ENG": "employee"
 },
 {
  "ITA": "evitare",
  "ENG": "to prevent"
 },
 {
  "ITA": "brevetto",
  "ENG": "patent"
 },
 {
  "ITA": "dirigente",
  "ENG": "manager"
 },
 {
  "ITA": "scadenza",
  "ENG": "deadline"
 },
 {
  "ITA": "rispattare una data di scadenza",
  "ENG": "to meet a deadline"
 },
 {
  "ITA": "turbare",
  "ENG": "to upset"
 },
 {
  "ITA": "stimato\/valorizzato",
  "ENG": "valued"
 },
 {
  "ITA": "fiducia",
  "ENG": "confidence"
 },
 {
  "ITA": "stipendio\/paga",
  "ENG": "salary\/pay"
 },
 {
  "ITA": "salario settimanale",
  "ENG": "wage"
 },
 {
  "ITA": "compenso\/retribuzione",
  "ENG": "compensation"
 },
 {
  "ITA": "mercato azionario",
  "ENG": "stock market"
 },
 {
  "ITA": "direttore\/responsabile",
  "ENG": "director"
 },
 {
  "ITA": "borsa",
  "ENG": "stock exchange"
 },
 {
  "ITA": "amministratore delegato",
  "ENG": "CEO (chied executive officer)"
 },
 {
  "ITA": "fatturazione\/giro d'affari",
  "ENG": "turnover"
 },
 {
  "ITA": "ripresa\/aumento\/crescita",
  "ENG": "upswing"
 },
 {
  "ITA": "ambiente di lavoro",
  "ENG": "working environment"
 },
 {
  "ITA": "esperto",
  "ENG": "specialist"
 },
 {
  "ITA": "flusso monetario",
  "ENG": "cashflow"
 },
 {
  "ITA": "membri del personale",
  "ENG": "staff members"
 },
 {
  "ITA": "assumere il controllo di un progetto",
  "ENG": "to take control of a project"
 },
 {
  "ITA": "gestione",
  "ENG": "management"
 },
 {
  "ITA": "fatturato annuale",
  "ENG": "annual sales"
 },
 {
  "ITA": "fornire",
  "ENG": "to supply"
 },
 {
  "ITA": "azionisti",
  "ENG": "stockholders"
 },
 {
  "ITA": "fondersi",
  "ENG": "to engage in merge"
 },
 {
  "ITA": "beni patrimoniali",
  "ENG": "assets"
 },
 {
  "ITA": "filiali",
  "ENG": "subsidiary"
 },
 {
  "ITA": "imprenditore",
  "ENG": "entrepreneur\/buisiness owner"
 },
 {
  "ITA": "società per azioni",
  "ENG": "corporetion"
 },
 {
  "ITA": "registrata",
  "ENG": "incorporated"
 },
 {
  "ITA": "case produttrici",
  "ENG": "manufacturers"
 },
 {
  "ITA": "processi aziendali",
  "ENG": "business processes"
 },
 {
  "ITA": "ottimizzare",
  "ENG": "to optimize"
 },
 {
  "ITA": "lanciare un ultimatum",
  "ENG": "to deliver an ultimatum"
 },
 {
  "ITA": "lanciare un prodotto",
  "ENG": "to launch a product"
 },
 {
  "ITA": "divisione consumi",
  "ENG": "consumer division"
 },
 {
  "ITA": "sede centrale",
  "ENG": "head office"
 },
 {
  "ITA": "redditività",
  "ENG": "profitability"
 },
 {
  "ITA": "violazione del contratto",
  "ENG": "breach of contract"
 },
 {
  "ITA": "tassi di interesse derivati",
  "ENG": "interst rates derivatives"
 },
 {
  "ITA": "datore di lavoro",
  "ENG": "employer"
 },
 {
  "ITA": "licenziare",
  "ENG": "to fire\/to dismiss\/ to lay off\/ to discharge\/ to make redundant"
 },
 {
  "ITA": "discussione",
  "ENG": "argument"
 },
 {
  "ITA": "diario\/pubblicazione scientifica",
  "ENG": "journal"
 },
 {
  "ITA": "castigo\/punizione",
  "ENG": "retribution"
 },
 {
  "ITA": "compito\/dovere",
  "ENG": "task"
 },
 {
  "ITA": "valutare",
  "ENG": "to appraise"
 },
 {
  "ITA": "cogliere un'occasione",
  "ENG": "to take a chance\/to take an opportunity"
 },
 {
  "ITA": "capire un punto di vista",
  "ENG": "to take a point"
 },
 {
  "ITA": "soddisfare un bisogno",
  "ENG": "to meet a need"
 },
 {
  "ITA": "rispettare i costi",
  "ENG": "to meet the cost"
 },
 {
  "ITA": "rispettare le aspettative",
  "ENG": "to meet the expectations"
 },
 {
  "ITA": "creare un precedente",
  "ENG": "to set a precedent"
 },
 {
  "ITA": "fissare un obiettivo",
  "ENG": "to set an objective"
 },
 {
  "ITA": "porre un limite",
  "ENG": "to set a limit"
 },
 {
  "ITA": "fattura",
  "ENG": "invoice"
 },
 {
  "ITA": "segretario di direzione",
  "ENG": "executive secretary"
 },
 {
  "ITA": "passare da\/fare un salto",
  "ENG": "to call into"
 },
 {
  "ITA": "ospitalità aziendale",
  "ENG": "corporate hospitality"
 },
 {
  "ITA": "gestire qualcosa",
  "ENG": "to cope with something"
 },
 {
  "ITA": "dimostrare",
  "ENG": "to prove"
 },
 {
  "ITA": "mandare in fallimento",
  "ENG": "to bankrupt"
 },
 {
  "ITA": "regolamentazioni",
  "ENG": "regulatory lawa"
 },
 {
  "ITA": "pratiche di contabilità irregolari",
  "ENG": "irregular accounting pratices"
 },
 {
  "ITA": "dirigente",
  "ENG": "executive "
 },
 {
  "ITA": "scandalo finanziario",
  "ENG": "financial scandal"
 },
 {
  "ITA": "mettere in gioco la propria reputazione",
  "ENG": "to stake one's own reputation"
 },
 {
  "ITA": "cifra",
  "ENG": "figure"
 },
 {
  "ITA": "notevole\/drastico\/dignificativo",
  "ENG": "dramatic"
 },
 {
  "ITA": "nomina",
  "ENG": "appointment"
 },
 {
  "ITA": "rimpatriata",
  "ENG": "reunion"
 },
 {
  "ITA": "magazzino",
  "ENG": "warehouse\/department store"
 },
 {
  "ITA": "ordine del giorno",
  "ENG": "agenda"
 },
 {
  "ITA": "autorizzare",
  "ENG": "to license"
 },
 {
  "ITA": "a quanto pare",
  "ENG": "apparently"
 },
 {
  "ITA": "sembrare interessante",
  "ENG": "to sound great"
 },
 {
  "ITA": "filiale bancaria",
  "ENG": "branch"
 },
 {
  "ITA": "consiglio di amministrazione",
  "ENG": "board of directors"
 },
 {
  "ITA": "all'estero\/oltremare",
  "ENG": "overseas"
 },
 {
  "ITA": "subappaltare",
  "ENG": "sub contacting"
 },
 {
  "ITA": "colpire\/affliggere",
  "ENG": "to affect"
 },
 {
  "ITA": "effettuare",
  "ENG": "to effect"
 },
 {
  "ITA": "revisiore",
  "ENG": "auditor"
 },
 {
  "ITA": "selezionare\/includere nella rosa dei candidati",
  "ENG": "to shortline"
 },
 {
  "ITA": "mercati emergenti",
  "ENG": "emerging markets"
 },
 {
  "ITA": "reddito annuale",
  "ENG": "annual revenues"
 },
 {
  "ITA": "essere in corso",
  "ENG": "to be under way"
 },
 {
  "ITA": "ridimensionamento\/ristrutturazione della società",
  "ENG": "corporate downsizing"
 },
 {
  "ITA": "riduzione del personale",
  "ENG": "dowsize"
 },
 {
  "ITA": "tagli",
  "ENG": "layoff"
 },
 {
  "ITA": "constatazione di incidente",
  "ENG": "accident report"
 },
 {
  "ITA": "fornitore",
  "ENG": "vendor"
 },
 {
  "ITA": "fornitore di servizi",
  "ENG": "provider"
 },
 {
  "ITA": "fornitore di beni",
  "ENG": "supplier"
 },
 {
  "ITA": "tendenza",
  "ENG": "trend"
 },
 {
  "ITA": "paesi in via di sviluppo",
  "ENG": "economically developing countries"
 },
 {
  "ITA": "atività di servizi",
  "ENG": "service work"
 },
 {
  "ITA": "stesura dei codici dei software",
  "ENG": "writing of software codes"
 },
 {
  "ITA": "masione concettuale",
  "ENG": "knowledge work"
 },
 {
  "ITA": "forza trainante",
  "ENG": "driving force"
 },
 {
  "ITA": "estrarre dati da internet",
  "ENG": "Data mining\/data extraction"
 },
 {
  "ITA": "resoconti bancari",
  "ENG": "credit records"
 },
 {
  "ITA": "assunzioni all'estero",
  "ENG": "offshore hiring"
 },
 {
  "ITA": "mancanza\/insufficienza\/carenza",
  "ENG": "shortage"
 },
 {
  "ITA": "sopperire\/rallentare",
  "ENG": "to ease"
 },
 {
  "ITA": "mercato",
  "ENG": "marketplace"
 },
 {
  "ITA": "collezionisti",
  "ENG": "collector"
 },
 {
  "ITA": "falsificare\/contraffare",
  "ENG": "to counterfeiter"
 },
 {
  "ITA": "attualmente",
  "ENG": "currently"
 },
 {
  "ITA": "riordinare\/mettere in ordine",
  "ENG": "to sort out"
 },
 {
  "ITA": "costantemente",
  "ENG": "steadily"
 },
 {
  "ITA": "a basso reddito",
  "ENG": "low income"
 },
 {
  "ITA": "buonuscita",
  "ENG": "golden handshake"
 },
 {
  "ITA": "liquidazione",
  "ENG": "Severance pay"
 },
 {
  "ITA": "andare in pensione",
  "ENG": "to retire"
 },
 {
  "ITA": "reddito",
  "ENG": "income"
 },
 {
  "ITA": "entate\/fatturato",
  "ENG": "revenue"
 },
 {
  "ITA": "in tutti i settori",
  "ENG": "across the board"
 },
 {
  "ITA": "presidente",
  "ENG": "chairman\/president"
 },
 {
  "ITA": "relazioni\/apunti\/verbali di una relazione",
  "ENG": "minutes of a meeting"
 },
 {
  "ITA": "responsabile del personale",
  "ENG": "Human Resources Manager"
 },
 {
  "ITA": "acquirenti",
  "ENG": "buyers"
 },
 {
  "ITA": "venditori",
  "ENG": "sellers"
 },
 {
  "ITA": "beni\/merci",
  "ENG": "assets\/goods"
 },
 {
  "ITA": "contrattazione",
  "ENG": "negotiation"
 },
 {
  "ITA": "determinazione dei prezzi",
  "ENG": "price setting"
 },
 {
  "ITA": "fluttuare",
  "ENG": "to fluctuate"
 },
 {
  "ITA": "offerta",
  "ENG": "supply"
 },
 {
  "ITA": "domanda",
  "ENG": "demand"
 },
 {
  "ITA": "sede fisica",
  "ENG": "physical location"
 },
 {
  "ITA": "mercato virtuale",
  "ENG": "electronic marketplace"
 },
 {
  "ITA": "asta",
  "ENG": "auction"
 },
 {
  "ITA": "battitore d'asta",
  "ENG": "autcioneer"
 },
 {
  "ITA": "offerta ad un'asta",
  "ENG": "bid"
 },
 {
  "ITA": "offerente ad un'asta",
  "ENG": "bidder"
 },
 {
  "ITA": "commerciare\/vendere",
  "ENG": "to trade"
 },
 {
  "ITA": "gestire una propria attività in rete",
  "ENG": "to run une's own online business"
 },
 {
  "ITA": "scorte\/magazzino",
  "ENG": "inventory"
 },
 {
  "ITA": "valutare\/stimare",
  "ENG": "to rate"
 },
 {
  "ITA": "transazioni",
  "ENG": "transaction"
 },
 {
  "ITA": "sviluppatore di software",
  "ENG": "software developer"
 },
 {
  "ITA": "fare domanda per un posto in",
  "ENG": "to apply for a place in"
 },
 {
  "ITA": "responsabile delle vendite",
  "ENG": "sales director"
 },
 {
  "ITA": "assistente del personale\/segretario",
  "ENG": "personal assistant (PA)"
 },
 {
  "ITA": "paesi industrializzati",
  "ENG": "(economically) developed countries"
 },
 {
  "ITA": "dare le dimissioni",
  "ENG": "to resign"
 },
 {
  "ITA": "avvisare",
  "ENG": "to notify\/to warn"
 },
 {
  "ITA": "valutare",
  "ENG": "to evaluete\/to asset"
 },
 {
  "ITA": "prova",
  "ENG": "evidence"
 },
 {
  "ITA": "spam",
  "ENG": "junk email"
 },
 {
  "ITA": "andare in bancarotta\/fallire",
  "ENG": "to go bankrupt\/to go bust"
 },
 {
  "ITA": "chiudere la fabbrica",
  "ENG": "to shut down"
 },
 {
  "ITA": "prendere in considerazione di fare quacosa",
  "ENG": "to think of doing something"
 },
 {
  "ITA": "pubblicizzare",
  "ENG": "to advertise"
 },
 {
  "ITA": "beni materiali",
  "ENG": "Goods"
 },
 {
  "ITA": "in relazione a",
  "ENG": "when viewed in combination with"
 },
 {
  "ITA": "aiuti umanitari",
  "ENG": "humanitarian aids"
 },
 {
  "ITA": "urgentemente",
  "ENG": "at your earliest convenience"
 },
 {
  "ITA": "azioni",
  "ENG": "stock\/share"
 },
 {
  "ITA": "un aumento del xxx%",
  "ENG": "an increase of xxx%\/a xxx% increase"
 },
 {
  "ITA": "aumentare del xxx%",
  "ENG": "to increase by xxx%"
 },
 {
  "ITA": "un aumento del (nome)",
  "ENG": "an increase in"
 },
 {
  "ITA": "varie de evenuali",
  "ENG": "AoB (any other business)"
 },
 {
  "ITA": "a carico di\/a spese di",
  "ENG": "at the expence of"
 },
 {
  "ITA": "bolletta\/conto",
  "ENG": "bill"
 },
 {
  "ITA": "presidente del cda",
  "ENG": "board's chairman"
 },
 {
  "ITA": "legame\/obbligazione",
  "ENG": "bond"
 },
 {
  "ITA": "brasile russia india cina",
  "ENG": "bric"
 },
 {
  "ITA": "viaggio di lavoro",
  "ENG": "business trip"
 },
 {
  "ITA": "disdire\/cancellare",
  "ENG": "to call off"
 },
 {
  "ITA": "eseguire un ordine",
  "ENG": "to carry out an order"
 },
 {
  "ITA": "eseguire una ricerca",
  "ENG": "to carry out a research"
 },
 {
  "ITA": "sfilata\/passerella",
  "ENG": "catwalk"
 },
 {
  "ITA": "direttore generale",
  "ENG": "chief operating officer (COO)"
 },
 {
  "ITA": "produrre in grande quantità",
  "ENG": "to churn out"
 },
 {
  "ITA": "concorrente",
  "ENG": "rival\/competitor"
 },
 {
  "ITA": "concomitante",
  "ENG": "concurrent"
 },
 {
  "ITA": "contratto di lavoro\/accordo commerciale",
  "ENG": "contract of employment\/trade agreement"
 },
 {
  "ITA": "convenienza",
  "ENG": "profit\/cheapness"
 },
 {
  "ITA": "imitazioni di marchi",
  "ENG": "copies of brands"
 },
 {
  "ITA": "imitatore",
  "ENG": "copycat"
 },
 {
  "ITA": "diritto d'autore",
  "ENG": "copyright"
 },
 {
  "ITA": "benessere aziendale",
  "ENG": "corporate health"
 },
 {
  "ITA": "riduzione dei costi",
  "ENG": "cost saving"
 },
 {
  "ITA": "valuta",
  "ENG": "currency"
 },
 {
  "ITA": "danni",
  "ENG": "damages"
 },
 {
  "ITA": "decenni",
  "ENG": "decades"
 },
 {
  "ITA": "inganno",
  "ENG": "deceit"
 },
 {
  "ITA": "masterizzazione di cd",
  "ENG": "digital copy of cd"
 },
 {
  "ITA": "licenziamento",
  "ENG": "dismissal\/discharge"
 },
 {
  "ITA": "licenziamento in tronco",
  "ENG": "dismissal without notice"
 },
 {
  "ITA": "pagare i dividendi",
  "ENG": "to pay dividends"
 },
 {
  "ITA": "affare fatto",
  "ENG": "done deal"
 },
 {
  "ITA": "spacciatore",
  "ENG": "drug dealer"
 },
 {
  "ITA": "assunzione",
  "ENG": "engagement"
 },
 {
  "ITA": "corretto\/impaziale",
  "ENG": "fair"
 },
 {
  "ITA": "presso grosso",
  "ENG": "fat cat"
 },
 {
  "ITA": "compenso\/tassa",
  "ENG": "fee"
 },
 {
  "ITA": "cifre\/dati",
  "ENG": "figures"
 },
 {
  "ITA": "condivisione dati",
  "ENG": "file swapping"
 },
 {
  "ITA": "contatto a tempo determinato",
  "ENG": "fixed term contract"
 },
 {
  "ITA": "quotazione in borsa",
  "ENG": "floatation on the stock market"
 },
 {
  "ITA": "libero professionista",
  "ENG": "freelance"
 },
 {
  "ITA": "PIL",
  "ENG": "Gdp (gross domestic production)"
 },
 {
  "ITA": "ottimo affare",
  "ENG": "great deal"
 },
 {
  "ITA": "lordo",
  "ENG": "gross"
 },
 {
  "ITA": "avere un contratto con",
  "ENG": "to have a contractual agreement with"
 },
 {
  "ITA": "serviti pure",
  "ENG": "help yourself with"
 },
 {
  "ITA": "assunzione",
  "ENG": "recruiment"
 },
 {
  "ITA": "società finanziaria",
  "ENG": "holding company"
 },
 {
  "ITA": "essere al verde",
  "ENG": "to be broke"
 },
 {
  "ITA": "richiesta di informazioni",
  "ENG": "inquiery"
 },
 {
  "ITA": "ci si aspetta che debba…",
  "ENG": "he is supposed to.."
 },
 {
  "ITA": "problema\/questione",
  "ENG": "issue"
 },
 {
  "ITA": "cercare lavoro",
  "ENG": "job hunting"
 },
 {
  "ITA": "costo del lavoro",
  "ENG": "labour cost"
 },
 {
  "ITA": "affitto",
  "ENG": "lease"
 },
 {
  "ITA": "spa",
  "ENG": "listed company"
 },
 {
  "ITA": "presito",
  "ENG": "loan"
 },
 {
  "ITA": "capo della produzione",
  "ENG": "production manager"
 },
 {
  "ITA": "guadagnare",
  "ENG": "to make a profit"
 },
 {
  "ITA": "capacità di gestione",
  "ENG": "management skills"
 },
 {
  "ITA": "produzione",
  "ENG": "manufacturing"
 },
 {
  "ITA": "ricerca e sviluppo",
  "ENG": "R&D Research&Development"
 },
 {
  "ITA": "gamma",
  "ENG": "range"
 },
 {
  "ITA": "tasso di inflazione",
  "ENG": "rate of inflation"
 },
 {
  "ITA": "licenziamento",
  "ENG": "redunancy"
 },
 {
  "ITA": "catena di punti vendita",
  "ENG": "retail chain"
 },
 {
  "ITA": "risultati di vendita",
  "ENG": "sales figures"
 },
 {
  "ITA": "previsioni di vendita",
  "ENG": "sales forecast"
 },
 {
  "ITA": "campione",
  "ENG": "sample"
 },
 {
  "ITA": "netto",
  "ENG": "sharp"
 },
 {
  "ITA": "di bassa qualità",
  "ENG": "shoddy"
 },
 {
  "ITA": "foglio di calcolo",
  "ENG": "spreadsheet"
 },
 {
  "ITA": "quota di mercato",
  "ENG": "market share"
 },
 {
  "ITA": "mercato maturo",
  "ENG": "mature market"
 },
 {
  "ITA": "importo netto",
  "ENG": "net amount"
 },
 {
  "ITA": "organizzazione non governativa",
  "ENG": "ngo"
 },
 {
  "ITA": "contratto a tempo indeterminato",
  "ENG": "open ended contract\/at will emplyment contract"
 },
 {
  "ITA": "costi fissi",
  "ENG": "overheads"
 },
 {
  "ITA": "busta paga",
  "ENG": "payslip"
 },
 {
  "ITA": "aumento di stipendio",
  "ENG": "pay rise"
 },
 {
  "ITA": "libro paga",
  "ENG": "payroll"
 },
 {
  "ITA": "pensione",
  "ENG": "pension"
 },
 {
  "ITA": "criminale\/colpevole",
  "ENG": "perpetrator"
 },
 {
  "ITA": "beni personali",
  "ENG": "personal asset"
 },
 {
  "ITA": "fotocopiare",
  "ENG": "to photocopy"
 },
 {
  "ITA": "pirateria",
  "ENG": "piracy"
 },
 {
  "ITA": "tirocinio\/periodo di prova",
  "ENG": "probation time"
 },
 {
  "ITA": "blocco delle assunzioni",
  "ENG": "staff resticion"
 },
 {
  "ITA": "rotazione del personale",
  "ENG": "staff turnover"
 },
 {
  "ITA": "improvviso cambiamento",
  "ENG": "sudden shift"
 },
 {
  "ITA": "sorvegliare\/dirigere",
  "ENG": "to oversee\/supervise"
 },
 {
  "ITA": "beni liquidi",
  "ENG": "liquid assets"
 },
 {
  "ITA": "indennità fiscale",
  "ENG": "tax benefict"
 },
 {
  "ITA": "tredicesima",
  "ENG": "year end bonus\/13th month salary"
 },
 {
  "ITA": "assolvere",
  "ENG": "to acquit\/to clear of"
 },
 {
  "ITA": "nominare qualcuno",
  "ENG": "to appoint someone"
 },
 {
  "ITA": "contattare",
  "ENG": "to approach"
 },
 {
  "ITA": "essere in perdita",
  "ENG": "to be in a loss"
 },
 {
  "ITA": "essere responsabile di",
  "ENG": "to be in charge of\/ to be responsable for"
 },
 {
  "ITA": "ricevere il sussidio di disoccupazione",
  "ENG": "to be on the dole"
 },
 {
  "ITA": "essere sotto giuramento",
  "ENG": "to be under oath"
 },
 {
  "ITA": "mandare via qualcuno a pedate",
  "ENG": "to boot out"
 },
 {
  "ITA": "creare una succursale all'estero",
  "ENG": "to branch abroad"
 },
 {
  "ITA": "chiedere un appalto",
  "ENG": "to call for tenders"
 },
 {
  "ITA": "centralizzare",
  "ENG": "to centralize"
 },
 {
  "ITA": "accusare qualcuno di qualcosa",
  "ENG": "to charge someone with something"
 },
 {
  "ITA": "chiudere un contratto",
  "ENG": "to clinch a contract"
 },
 {
  "ITA": "frodare",
  "ENG": "to defraud"
 },
 {
  "ITA": "fare gli straordinari",
  "ENG": "to do overtime"
 },
 {
  "ITA": "raddoppiare\/triplicare",
  "ENG": "to double\/to triple"
 },
 {
  "ITA": "redigere un contratto",
  "ENG": "to draw up a contract"
 },
 {
  "ITA": "aumentare\/migliorare",
  "ENG": "to edge up"
 },
 {
  "ITA": "dare lavoro a",
  "ENG": "to employ"
 },
 {
  "ITA": "affrontare",
  "ENG": "to face"
 },
 {
  "ITA": "scendere",
  "ENG": "to fall\/to go down"
 },
 {
  "ITA": "imparare a conoscere qualcuno",
  "ENG": "to get to know someone"
 },
 {
  "ITA": "ricevere un avviso",
  "ENG": "to be given a warning"
 },
 {
  "ITA": "dovere\/essere debitori",
  "ENG": "to owe"
 },
 {
  "ITA": "dichiararsi colpevoli\/non colpevoli",
  "ENG": "to plead guilthy\/non guilthy"
 },
 {
  "ITA": "essere accusato di",
  "ENG": "to prosecuted for"
 },
 {
  "ITA": "essere colpevoli di ",
  "ENG": "to be guilthy of"
 },
 {
  "ITA": "far causa a qualcuno per",
  "ENG": "to sue someone for"
 },
 {
  "ITA": "fare una proposta",
  "ENG": "to put forwaed a proposal"
 },
 {
  "ITA": "processare qualcuno",
  "ENG": "to put someone to trial"
 },
 {
  "ITA": "rinnovare un contratto",
  "ENG": "to renew a contract"
 },
 {
  "ITA": "firmare un contratto",
  "ENG": "to sign a contract"
 },
 {
  "ITA": "citare in giudizio",
  "ENG": "to take someone to court"
 },
 {
  "ITA": "presentare un appello",
  "ENG": "to submit a tender"
 },
 {
  "ITA": "essere a capo\/assumere il controllo di",
  "ENG": "to be at the helm\/to take helm of"
 },
 {
  "ITA": "commercializzare all'estero",
  "ENG": "to trade abroad"
 },
 {
  "ITA": "testimoniare",
  "ENG": "to testify"
 },
 {
  "ITA": "conferire poteriautorità",
  "ENG": "to empower"
 },
 {
  "ITA": "vincere una gara di appalto per",
  "ENG": "to win a tender for"
 },
 {
  "ITA": "ritirare dal mercato",
  "ENG": "to withdraw"
 },
 {
  "ITA": "testimoniare",
  "ENG": "to give evidence"
 },
 {
  "ITA": "insieme di prove",
  "ENG": "the body of evidence"
 },
 {
  "ITA": "essere sotto processo",
  "ENG": "to be put on trial"
 },
 {
  "ITA": "condannare qualcuno",
  "ENG": "to convict someone of"
 },
 {
  "ITA": "migliorare",
  "ENG": "to impruve"
 },
 {
  "ITA": "richiedere informazioni",
  "ENG": "to inquire"
 },
 {
  "ITA": "presentare qualcuno",
  "ENG": "to introduce a person"
 },
 {
  "ITA": "investire",
  "ENG": "to invest"
 },
 {
  "ITA": "preparare una fattura",
  "ENG": "to issue an invoice"
 },
 {
  "ITA": "diventare membro di una società",
  "ENG": "to join a company"
 },
 {
  "ITA": "lasciare una società",
  "ENG": "to leave a company"
 },
 {
  "ITA": "dare in prestito",
  "ENG": "to lend"
 },
 {
  "ITA": "prendersi cura di",
  "ENG": "to look after"
 },
 {
  "ITA": "investigare",
  "ENG": "to look into"
 },
 {
  "ITA": "stipulare un contratto",
  "ENG": "to make an agreement"
 },
 {
  "ITA": "marchio di fabbrica",
  "ENG": "trade mark"
 },
 {
  "ITA": "sindacato",
  "ENG": "trade union"
 },
 {
  "ITA": "corso di formazione",
  "ENG": "training course"
 },
 {
  "ITA": "porcesso",
  "ENG": "trial"
 },
 {
  "ITA": "il doppio di",
  "ENG": "twice as much as"
 },
 {
  "ITA": "onu",
  "ENG": "un"
 },
 {
  "ITA": "impegnato per contratto",
  "ENG": "under contract"
 },
 {
  "ITA": "assunzione",
  "ENG": "undertaking"
 },
 {
  "ITA": "disoccupato",
  "ENG": "unemployed"
 },
 {
  "ITA": "posizione libera",
  "ENG": "vacancy"
 },
 {
  "ITA": "un importante produttore",
  "ENG": "a major producer"
 },
 {
  "ITA": "operatori logistici",
  "ENG": "logistics operators"
 },
 {
  "ITA": "trarre vantaggio da qualcosa",
  "ENG": "to take advantage of something"
 },
 {
  "ITA": "materie prime",
  "ENG": "raw materials"
 },
 {
  "ITA": "prodotti finiti",
  "ENG": "finished goods"
 },
 {
  "ITA": "scambiare informazioni",
  "ENG": "to pass around information"
 },
 {
  "ITA": "avviare un'azienda",
  "ENG": "to set up a company"
 },
 {
  "ITA": "attività di imballaggio",
  "ENG": "packing"
 },
 {
  "ITA": "eccedenza di scorte",
  "ENG": "overstock"
 },
 {
  "ITA": "processo di esternalizzazione aziendale",
  "ENG": "business process outsourcing BPO"
 },
 {
  "ITA": "ramo di autonoleggio",
  "ENG": "hire car arm"
 },
 {
  "ITA": "cifra complessiva",
  "ENG": "round figure"
 },
 {
  "ITA": "costi complessivi",
  "ENG": "overall costs"
 },
 {
  "ITA": "stime dei risparmi",
  "ENG": "calculations of saving"
 },
 {
  "ITA": "quando le cifre saranno rese note",
  "ENG": "when the figures are out"
 },
 {
  "ITA": "consorzio",
  "ENG": "consortium"
 },
 {
  "ITA": "sottoscrivere un contratto per organizzare qualcosa",
  "ENG": "to sign a contract to sort out something"
 },
 {
  "ITA": "crescita senza precedenti",
  "ENG": "unprecedented growth"
 },
 {
  "ITA": "eccessi negli stipendi",
  "ENG": "pay-excess"
 },
 {
  "ITA": "interrogare su qualcosa",
  "ENG": "to quiz over something"
 },
 {
  "ITA": "colossi bancari",
  "ENG": "banking giants"
 },
 {
  "ITA": "legislatori",
  "ENG": "lawmakers"
 },
 {
  "ITA": "compensi retributivi",
  "ENG": "compensation packages"
 },
 {
  "ITA": "società di contabilità",
  "ENG": "accounting company"
 },
 {
  "ITA": "trimeste",
  "ENG": "quarter"
 },
 {
  "ITA": "leader mondiale",
  "ENG": "world leader"
 },
 {
  "ITA": "analista di merkato",
  "ENG": "market analyst"
 },
 {
  "ITA": "televisori a schermo piatto",
  "ENG": "flat screen tvs"
 },
 {
  "ITA": "mercato della telefonia mobile",
  "ENG": "mobile phone market"
 },
 {
  "ITA": "servizio sanitario nazionale",
  "ENG": "national health service"
 },
 {
  "ITA": "le nazioni devono rimettersi in pari",
  "ENG": "cauntries are bound to catch up"
 },
 {
  "ITA": "picco",
  "ENG": "peak"
 },
 {
  "ITA": "alla fine della settimana scorsa",
  "ENG": "late last week"
 },
 {
  "ITA": "le azioni stanno calando di circa il 15%",
  "ENG": "stocks are dropping some 15%"
 },
 {
  "ITA": "indrustria informatica",
  "ENG": "computer industry"
 },
 {
  "ITA": "aziende localizzate negli stati uniti",
  "ENG": "us based firms"
 },
 {
  "ITA": "concorrenza estera",
  "ENG": "overseas competitors"
 },
 {
  "ITA": "acquisizione ",
  "ENG": "buyout"
 },
 {
  "ITA": "canali di vendita",
  "ENG": "sales channels"
 },
 {
  "ITA": "la stragrande maggioranza",
  "ENG": "the overwhelming majority"
 },
 {
  "ITA": "questioni politiche e sociali delicate",
  "ENG": "sensitive political and social issues"
 },
 {
  "ITA": "inchiesta\/indagine\/sondaggio",
  "ENG": "survey"
 },
 {
  "ITA": "coinvoglimento politico",
  "ENG": "political involvement"
 },
 {
  "ITA": "questioni ambientali",
  "ENG": "environmental issues"
 },
 {
  "ITA": "gestion efinanziaria",
  "ENG": "financial management"
 }
]